Data Analytics 101 -- Exploratory Data Analysis using R. – exploringtibbles
…
This code demonstrates the use of the | (or) operator.

select(): Recall that this function is used to select specific columns. Suppose we want to select mpg, hp, cyl and am columns.

tb %>% 
  select(mpg, hp, cyl, am)

# A tibble: 32 × 4
     mpg    hp cyl   am   
   <dbl> <dbl> <fct> <fct>
 1  21     110 6     1    
 2  21     110 6     1    
 3  22.8    93 4     1    
 4  21.4   110 6     0    
 5  18.7   175 8     0    
 6  18.1   105 6     0    
 7  14.3   245 8     0    
 8  24.4    62 4     0    
 9  22.8    95 4     0    
10  19.2   123 6     0    
# ℹ 22 more rows
…
filter(mpg > 20 & gear == 5): Here, we are utilizing the filter() function to sift through the dataset tb and retain only those rows where mpg (miles per gallon) is more than 20 and the number of gears is equal to 5.

select(mpg, hp, cyl, am): This function is then invoked to choose specific columns from our filtered dataset. In this instance, we have picked the columns mpg, hp (horsepower), cyl (cylinders), and am (transmission type). The resulting dataset, therefore, contains only these four columns from the filtered data.

Suppose we wanted to select all the columns within a range. Specifically, suppose we wanted to select all the columns within cyl and wt, excluding all other columns. Recall that the original tibble has the following data columns.

colnames(tb)

 [1] "mpg"  "cyl"  "disp" "hp"   "drat" "wt"   "qsec" "vs"   "am"   "gear"
[11] "carb"

tb %>% 
  select(cyl:wt)

# A tibble: 32 × 5
   cyl    disp    hp  drat    wt
   <fct> <dbl> <dbl> <dbl> <dbl>
 1 6      160    110  3.9   2.62
 2 6      160    110  3.9   2.88
 3 4      108     93  3.85  2.32
 4 6      258    110  3.08  3.22
 5 8      360    175  3.15  3.44
 6 6      225    105  2.76  3.46
 7 8      360    245  3.21  3.57
 8 4      147.    62  3.69  3.19
 9 4      141.    95  3.92  3.15
10 6      168.   123  3.92  3.44
# ℹ 22 more rows

select(cyl:wt): This code selects all columns in the tb dataframe starting from cyl up to and including wt.

Only the five columns {cyl, disp, hp, drat, wt} get selected. This is a particularly useful feature when dealing with dataframes that have a large number of columns, and we are interested in a contiguous subset of those columns

Alternately, suppose instead that we wanted to select all columns except those within the range of cyl and wt.

tb %>% 
  select(-cyl:wt)

# A tibble: 32 × 6
     mpg cyl    disp    hp  drat    wt
   <dbl> <fct> <dbl> <dbl> <dbl> <dbl>
 1  21   6      160    110  3.9   2.62
 2  21   6      160    110  3.9   2.88
 3  22.8 4      108     93  3.85  2.32
 4  21.4 6      258    110  3.08  3.22
 5  18.7 8      360    175  3.15  3.44
 6  18.1 6      225    105  2.76  3.46
 7  14.3 8      360    245  3.21  3.57
 8  24.4 4      147.    62  3.69  3.19
 9  22.8 4      141.    95  3.92  3.15
10  19.2 6      168.   123  3.92  3.44
# ℹ 22 more rows
…
transmute(): When we want to generate new variables from existing ones and keep only these new variables, we use the transmute() function. It is similar to mutate(), but it only keeps the newly created variables, making it a powerful tool when we’re only interested in transformed or calculated variables.

pull(): The pull() function is used to extract a single variable as a vector from a dataframe. This function becomes very practical when we wish to isolate and work with a single variable outside its dataframe.

n_distinct(): To enumerate the unique values in a column or vector, we use the n_distinct() function. It’s an essential function when we want to know the number of distinct elements within a specific categorical variable. [2]

Using dplyr to explore the mtcars tibble more

rename(): Remember that this function is helpful in changing column names in our data. For instance, let us modify the name of the mpg column to MPG in the mtcars dataset.

tb %>% 
  rename(MPG = mpg)

# A tibble: 32 × 11
     MPG cyl    disp    hp  drat    wt  qsec vs    am    gear   carb
   <dbl> <fct> <dbl> <dbl> <dbl> <dbl> <dbl> <fct> <fct> <fct> <dbl>
 1  21   6      160    110  3.9   2.62  16.5 0     1     4         4
 2  21   6      160    110  3.9   2.88  17.0 0     1     4         4
 3  22.8 4      108     93  3.85  2.32  18.6 1     1     4         1
 4  21.4 6      258    110  3.08  3.22  19.4 1     0     3         1
 5  18.7 8      360    175  3.15  3.44  17.0 0     0     3         2
 6  18.1 6      225    105  2.76  3.46  20.2 1     0     3         1
 7  14.3 8      360    245  3.21  3.57  15.8 0     0     3         4
 8  24.4 4      147.    62  3.69  3.19  20   1     0     4         2
 9  22.8 4      141.    95  3.92  3.15  22.9 1     0     4         2
10  19.2 6      168.   123  3.92  3.44  18.3 1     0     4         4
# ℹ 22 more rows
…
